…
```{r}
# predict survival function for subject with means on all covariates
surv.at.means <- survfit(lung.cox) 

#table of survival function
tidy(surv.at.means)
```

```
## # A tibble: 179 × 8
##     time n.risk n.event n.censor estimate std.error conf.high conf.low
##    <dbl>  <dbl>   <dbl>    <dbl>    <dbl>     <dbl>     <dbl>    <dbl>
##  1     5    214       1        0    0.996   0.00443     1        0.987
##  2    11    213       2        0    0.987   0.00772     1        0.972
##  3    12    211       1        0    0.982   0.00894     1.00     0.965
##  4    13    210       2        0    0.973   0.0110      0.995    0.953
##  5    15    208       1        0    0.969   0.0120      0.992    0.946
##  6    26    207       1        0    0.964   0.0128      0.989    0.940
##  7    30    206       1        0    0.960   0.0137      0.986    0.935
##  8    31    205       1        0    0.955   0.0145      0.983    0.929
##  9    53    204       2        0    0.946   0.0160      0.976    0.917
## 10    54    202       1        0    0.942   0.0167      0.973    0.912
## # ℹ 169 more rows
```
…
```{r}
# get survival function estimates for each sex
surv.by.sex <- survfit(lung.cox, newdata=plotdata) # one function for each sex

# tidy results
tidy(surv.by.sex)
```

```
## # A tibble: 179 × 12
##     time n.risk n.event n.censor estimate.1 estimate.2 std.error.1 std.error.2 conf.high.1 conf.high.2
##    <dbl>  <dbl>   <dbl>    <dbl>      <dbl>      <dbl>       <dbl>       <dbl>       <dbl>       <dbl>
##  1     5    214       1        0      0.995      0.997     0.00546     0.00327       1           1    
##  2    11    213       2        0      0.984      0.990     0.00953     0.00577       1           1    
##  3    12    211       1        0      0.978      0.987     0.0111      0.00674       1.00        1    
##  4    13    210       2        0      0.967      0.980     0.0137      0.00844       0.994       0.997
##  5    15    208       1        0      0.962      0.977     0.0148      0.00921       0.990       0.995
##  6    26    207       1        0      0.956      0.974     0.0159      0.00995       0.987       0.993
##  7    30    206       1        0      0.951      0.971     0.0170      0.0107        0.983       0.991
##  8    31    205       1        0      0.945      0.967     0.0180      0.0113        0.979       0.989
##  9    53    204       2        0      0.934      0.960     0.0199      0.0127        0.972       0.985
## 10    54    202       1        0      0.929      0.957     0.0208      0.0133        0.968       0.982
## # ℹ 169 more rows
## # ℹ 2 more variables: conf.low.1 <dbl>, conf.low.2 <dbl>
```
…
